<?xml version="1.0" encoding="utf-8"?>
<!-- Generator: Adobe Illustrator 23.0.0, SVG Export Plug-In . SVG Version: 6.00 Build 0)  -->
<svg version="1.1" id="Calque_1" xmlns="http://www.w3.org/2000/svg" xmlns:xlink="http://www.w3.org/1999/xlink" x="0px" y="0px"
	 viewBox="0 0 805.6 316.1" style="enable-background:new 0 0 805.6 316.1;" xml:space="preserve">
<style type="text/css">
	.st0{fill:#FFFFFF;}
	.st1{fill:#FF0000;}
</style>
<title>logoNew</title>
<rect y="258" class="st0" width="801.6" height="58.1"/>
<path class="st0" d="M805.6,36.1c0,4.9-4,8.9-8.8,8.9c-4.9,0-8.9-4-8.9-8.9s4-8.9,8.9-8.9C801.7,27.2,805.6,31.2,805.6,36.1"/>
<polygon class="st0" points="791.2,146.9 791.2,71 801.6,71 801.6,233.7 791.2,233.7 791.2,160.3 786.9,156 708.8,233.7 
	695.2,233.7 779.8,149.3 700.2,71 714,71 "/>
<path class="st0" d="M10.4,152.3c0,40.1,33.5,73.8,74,73.8c40.3,0,74-33.9,74-73.8c0-40.1-33.7-73.8-74-73.8
	C43.8,78.5,10.4,112.2,10.4,152.3 M168.8,152.3c0,45.8-38.6,83.5-84.4,83.5S0,198.1,0,152.3s38.4-83.5,84.4-83.5
	C130.1,68.8,168.8,106.6,168.8,152.3"/>
<path class="st0" d="M217.5,146.9c10.1,0,20.3-0.4,28.5-7.6c7.8-6.3,11.4-16,11.4-25.7c0-12.1-5.6-24.2-17.3-29.3
	c-8.6-4.1-19.6-3.7-29.1-3.7h-6.7v66.3H217.5z M274.5,233.7h-11.9l-53.1-77h-5.2v77H194V71h20.3c13.2,0,26.1,0.2,37.1,8.2
	c11.7,8.2,16.4,21.1,16.4,35c0,28.3-19.6,42.9-46.6,42.5L274.5,233.7z"/>
<polygon class="st0" points="309.7,224 351.1,224 351.1,233.7 299.3,233.7 299.3,71 309.7,71 "/>
<rect x="369.9" y="71" class="st0" width="10.4" height="162.7"/>
<polygon class="st0" points="415.2,233.7 425.6,233.7 425.6,93.8 562.2,239.1 562.2,71 551.8,71 551.8,213 415.2,68.8 "/>
<path class="st0" d="M672.5,97.7c-7.3-11.6-17.7-19.2-33-19.2c-17.5,0-30.7,14-30.7,31.1s16.2,24.1,29.3,30.4l31.1,16.2
	c12.3,7.8,18.6,17.7,18.6,32.4c0,27-24.6,47.3-50.9,47.3c-22.7,0-40.3-14-47.9-35l9.1-4.1c6.9,17.3,19.6,29.4,39.3,29.4
	c21.4,0,40.1-16.8,40.1-38.4c0-18.3-18.8-26.1-32.8-33l-29.3-15.5c-10.8-6.7-16.8-16.2-16.8-29.1c0-24.2,17.3-41.2,41.7-41.2
	c16.4,0,31.9,8.9,39.7,22.9L672.5,97.7z"/>
<path class="st0" d="M212.1,36.4h-2.6L198,19.7h-1.1v16.6h-2.3V1.2h4.4c2.9,0,5.6,0,8,1.8c2.4,1.8,3.8,4.6,3.6,7.6
	c0,6.1-4.3,9.3-10.1,9.2L212.1,36.4z M199.7,17.6c2.2,0,4.4-0.1,6.2-1.6c1.6-1.4,2.5-3.4,2.5-5.6c0.1-2.7-1.3-5.2-3.7-6.3
	c-1.9-0.9-4.3-0.8-6.3-0.8h-1.4v14.3H199.7z"/>
<path class="st0" d="M259.4,36.4h-2.2V1.2h2.2V36.4z"/>
<path class="st0" d="M334.6,8.4c-3-3.4-7.3-5.5-11.8-5.6c-8.8,0.2-15.9,7.4-16,16.2c0,4.1,1.7,8,4.7,10.9c3,3,7.1,4.7,11.3,4.8
	c4.5-0.1,8.8-2.1,11.8-5.4v3.1c-3.3,2.8-7.4,4.4-11.7,4.4c-9.8,0-18.3-8.2-18.3-18c0.2-10,8.3-18.1,18.4-18.1
	c4.3,0,8.5,1.7,11.7,4.6L334.6,8.4z"/>
<path class="st0" d="M404.4,16.1V1.2h2.2v35.2h-2.2V18.2H383v18.2h-2.2V1.2h2.2v14.9H404.4z"/>
<path class="st0" d="M457.4,24.8l-4.7,11.6h-2.3L465.1,0l14.7,36.4h-2.3l-4.7-11.6L457.4,24.8z M465.1,5.7l-6.9,17H472L465.1,5.7z"
	/>
<path class="st0" d="M540.9,36.4h-2.6l-11.5-16.6h-1.1v16.6h-2.2V1.2h4.4c2.8,0,5.7,0,8,1.8c2.4,1.8,3.7,4.6,3.5,7.6
	c0,6.1-4.2,9.3-10.1,9.2L540.9,36.4z M528.6,17.6c2.2,0,4.4-0.1,6.2-1.6c1.6-1.4,2.5-3.4,2.5-5.6c0.1-2.7-1.3-5.2-3.7-6.3
	c-1.9-0.9-4.3-0.8-6.3-0.8h-1.5v14.3H528.6z"/>
<path class="st0" d="M586,1.2h6.3c5.1,0,9.2,0.8,13.1,4.4c7.3,6.9,7.5,18.5,0.6,25.7c-0.1,0.1-0.3,0.3-0.4,0.4
	c-3.9,3.7-8,4.7-13.3,4.7H586L586,1.2z M592.3,34.3c4.6,0,8.5-0.9,11.8-4.3c6.2-6.2,6.2-16.3,0-22.5c-0.1-0.1-0.3-0.3-0.5-0.4
	c-3.4-3-7-3.8-11.4-3.8h-4.1v31L592.3,34.3z"/>
<path class="st1" d="M20,299.5h-8.3v-24.9h8.3v-8.3h16.6v8.3h8.3v24.9h-8.3v8.3H20V299.5z M36.6,299.5v-24.9H20v24.9H36.6z"/>
<path class="st1" d="M64.2,307.8h-8.3v-41.5h24.9v8.3H64.2v8.3h16.6v8.3H64.2V307.8z"/>
<path class="st1" d="M99.9,307.8h-8.3v-41.5h24.9v8.3H99.9v8.3h16.6v8.3H99.9L99.9,307.8z"/>
<path class="st1" d="M143.9,299.5h8.3v8.3h-24.9v-8.3h8.3v-24.9h-8.3v-8.3h24.9v8.3h-8.3L143.9,299.5z"/>
<path class="st1" d="M171.3,299.5H163v-24.9h8.3V299.5z M171.3,274.6v-8.3h16.6v8.3H171.3z M171.3,307.8v-8.3h16.6v8.3H171.3z"/>
<path class="st1" d="M215.3,299.5h8.3v8.3h-24.9v-8.3h8.3v-24.9h-8.3v-8.3h24.9v8.3h-8.3L215.3,299.5z"/>
<path class="st1" d="M242.6,274.6v-8.3h16.6v8.3h8.3v33.2h-8.3v-8.3h-16.6v8.3h-8.3v-33.2H242.6z M259.2,291.2v-16.6h-16.6v16.6
	H259.2z"/>
<path class="st1" d="M278.8,307.8v-41.5h8.3v33.2h16.6v8.3H278.8z"/>
<path class="st1" d="M358.8,299.5h-8.3v-24.9h8.3v-8.3h16.6v8.3h8.3v24.9h-8.3v8.3h-16.6V299.5z M375.4,299.5v-24.9h-16.6v24.9
	H375.4z"/>
<path class="st1" d="M403.1,307.8h-8.3v-41.5h8.3v8.3h8.3v8.3h-8.3V307.8z M411.4,291.2v-8.3h8.3v-16.6h8.3v41.5h-8.3v-16.6H411.4z"
	/>
<path class="st1" d="M439.4,307.8v-41.5h8.3v33.2h16.6v8.3H439.4z"/>
<path class="st1" d="M491.6,299.5h8.3v8.3H475v-8.3h8.3v-24.9H475v-8.3h24.9v8.3h-8.3V299.5z"/>
<path class="st1" d="M519,307.8h-8.3v-41.5h8.3v8.3h8.3v8.3H519V307.8z M527.3,291.2v-8.3h8.3v-16.6h8.3v41.5h-8.3v-16.6H527.3z"/>
<path class="st1" d="M555.3,307.8v-41.5h24.9v8.3h-16.5v8.3h16.6v8.3h-16.6v8.3h16.6v8.3L555.3,307.8z"/>
<path class="st1" d="M627,274.6h8.3v8.3H627V274.6z M651.9,299.5v8.3H627v-8.3H651.9z M660.2,266.3v8.3h-24.9v-8.3H660.2z
	 M635.3,291.2v-8.3h16.6v8.3H635.3z M651.9,299.5v-8.3h8.3v8.3H651.9z"/>
<path class="st1" d="M695.9,266.3h8.3v41.5h-8.3v-16.6h-16.6v16.6H671v-41.5h8.3v16.6h16.6V266.3z"/>
<path class="st1" d="M723.5,299.5h-8.3v-24.9h8.3v-8.3h16.6v8.3h8.3v24.9h-8.3v8.3h-16.6V299.5z M740.1,299.5v-24.9h-16.6v24.9
	H740.1z"/>
<path class="st1" d="M784.4,274.6h8.3v16.6h-8.3v8.3h-16.6v8.3h-8.3v-41.5h24.9L784.4,274.6z M767.8,291.2h16.6v-16.6h-16.6V291.2z"
	/>
</svg>
