<?xml version="1.0" encoding="utf-8"?>
<!-- Generator: Adobe Illustrator 24.2.3, SVG Export Plug-In . SVG Version: 6.00 Build 0)  -->
<svg version="1.1" id="Layer_1" xmlns="http://www.w3.org/2000/svg" xmlns:xlink="http://www.w3.org/1999/xlink" x="0px" y="0px"
	 width="50px" height="50px" viewBox="0 0 50 50" style="enable-background:new 0 0 50 50;" xml:space="preserve">
<style type="text/css">
	.st0{fill:none;stroke:#000000;stroke-width:0.4772;stroke-miterlimit:10;}
</style>
<g>
	<polygon class="st0" points="24.6,9.9 22.3,7.8 17.5,6.4 11.4,7.3 7,11 4.6,17.3 7,26.6 24.6,46 39.1,32.1 41,30.1 46.2,22.5 
		45.3,12 34.8,5.4 27.2,6.9 	"/>
	<line class="st0" x1="37.6" y1="6.2" x2="34.8" y2="5.4"/>
	<line class="st0" x1="45.3" y1="12" x2="37.6" y2="6.2"/>
	<line class="st0" x1="28.6" y1="9.9" x2="34.8" y2="5.4"/>
	<line class="st0" x1="34.8" y1="11.7" x2="34.8" y2="5.4"/>
	<line class="st0" x1="28.6" y1="9.9" x2="34.8" y2="11.7"/>
	<line class="st0" x1="21.8" y1="23" x2="28.6" y2="9.9"/>
	<line class="st0" x1="22.4" y1="12.8" x2="28.6" y2="9.9"/>
	<line class="st0" x1="24.6" y1="9.9" x2="22.4" y2="12.8"/>
	<line class="st0" x1="23.9" y1="10.8" x2="17.5" y2="6.4"/>
	<line class="st0" x1="22.4" y1="12.8" x2="17.5" y2="6.4"/>
	<line class="st0" x1="15.4" y1="10.2" x2="17.5" y2="6.4"/>
	<line class="st0" x1="11.4" y1="7.3" x2="15.4" y2="10.2"/>
	<line class="st0" x1="10.7" y1="10.8" x2="15.4" y2="10.2"/>
	<line class="st0" x1="11.4" y1="7.3" x2="10.7" y2="10.8"/>
	<line class="st0" x1="7" y1="11" x2="10.7" y2="10.8"/>
	<line class="st0" x1="10.7" y1="10.8" x2="11" y2="18.5"/>
	<line class="st0" x1="7" y1="11" x2="11" y2="18.5"/>
	<line class="st0" x1="8.5" y1="22.5" x2="11" y2="18.5"/>
	<line class="st0" x1="7" y1="26.6" x2="8.5" y2="22.5"/>
	<line class="st0" x1="4.6" y1="17.3" x2="8.5" y2="22.5"/>
	<line class="st0" x1="24.6" y1="46" x2="16.4" y2="29.2"/>
	<line class="st0" x1="8.5" y1="22.5" x2="16.4" y2="29.2"/>
	<line class="st0" x1="23.3" y1="43.4" x2="7" y2="26.6"/>
	<line class="st0" x1="39.7" y1="23.2" x2="28.4" y2="30"/>
	<line class="st0" x1="31.4" y1="20.5" x2="28.4" y2="30"/>
	<line class="st0" x1="16.4" y1="29.2" x2="31.4" y2="20.5"/>
	<line class="st0" x1="11" y1="18.5" x2="21.8" y2="23"/>
	<line class="st0" x1="31.4" y1="20.5" x2="21.8" y2="23"/>
	<line class="st0" x1="16.4" y1="29.2" x2="21.8" y2="23"/>
	<line class="st0" x1="23.3" y1="43.4" x2="28.4" y2="30"/>
	<line class="st0" x1="24.6" y1="46" x2="38.6" y2="30.1"/>
	<line class="st0" x1="39.7" y1="23.2" x2="38.6" y2="30.1"/>
	<line class="st0" x1="46.2" y1="22.5" x2="38.6" y2="30.1"/>
	<line class="st0" x1="43.3" y1="15.9" x2="46.2" y2="22.5"/>
	<line class="st0" x1="39.7" y1="23.2" x2="43.3" y2="15.9"/>
	<line class="st0" x1="34.8" y1="11.7" x2="43.3" y2="15.9"/>
	<line class="st0" x1="31.4" y1="20.5" x2="39.7" y2="23.2"/>
	<line class="st0" x1="34.8" y1="11.7" x2="31.4" y2="20.5"/>
	<line class="st0" x1="45.3" y1="12" x2="43.3" y2="15.9"/>
	<line class="st0" x1="41.4" y1="9.6" x2="43.3" y2="15.9"/>
	<line class="st0" x1="34.8" y1="11.7" x2="41.4" y2="9.6"/>
	<line class="st0" x1="28.6" y1="9.9" x2="31.4" y2="20.5"/>
	<line class="st0" x1="15.4" y1="10.2" x2="21.8" y2="23"/>
	<line class="st0" x1="22.4" y1="12.8" x2="21.8" y2="23"/>
	<line class="st0" x1="15.4" y1="10.2" x2="22.4" y2="12.8"/>
	<line class="st0" x1="11" y1="18.5" x2="15.4" y2="10.2"/>
	<line class="st0" x1="28.4" y1="30" x2="16.4" y2="29.2"/>
	<line class="st0" x1="7" y1="26.6" x2="16.4" y2="29.2"/>
	<line class="st0" x1="23.3" y1="43.4" x2="30" y2="39.8"/>
	<line class="st0" x1="38.6" y1="30.1" x2="35.9" y2="35.2"/>
	<polygon points="14.4,34.6 24,45.2 23.1,43.3 14.4,34.5 	"/>
	<polygon points="4.8,17.2 7.4,12 7,11.4 	"/>
</g>
</svg>
