<?xml version="1.0" encoding="utf-8"?>
<!-- Generator: Adobe Illustrator 24.2.3, SVG Export Plug-In . SVG Version: 6.00 Build 0)  -->
<svg version="1.1" id="Layer_1" xmlns="http://www.w3.org/2000/svg" xmlns:xlink="http://www.w3.org/1999/xlink" x="0px" y="0px"
	 width="50px" height="50px" viewBox="0 0 50 50" style="enable-background:new 0 0 50 50;" xml:space="preserve">
<path d="M46.6,43.4L46.6,43.4L46.6,43.4c-0.7-0.7-1.5-1.6-2.4-2.6c-0.5-0.5-1-1-1.5-1.4c-0.5-0.4-1-0.8-1.6-1.2l-0.5-0.3
	c-0.3-0.4-0.6-0.7-0.9-1.1c-0.4-0.6-0.9-1.1-1.4-1.6c-0.5-0.5-1-0.9-1.5-1.4L36.1,33c0-0.2-0.1-0.4-0.1-0.5l-0.1-0.4
	c0.7-0.7,1.5-1.5,2.2-2.2l0,0v-0.1c0.3-1,0.5-2,0.8-2.9c0.1-0.3,0.3-0.7,0.4-1c0.3-1.1,0.7-2.1,0.9-3.2v-0.1l0.1-0.4
	c0,0-1.8-8.5-2.6-12.6V9.4l-0.1-0.1l-5.2-2.8l-4.9-2.8L26.2,4c-4.5,0.5-9,1-13.5,1.5h-0.1l-0.1,0.1c-3.1,3.5-6.3,7.1-9.4,10.6
	L3,16.5v0.2l0.9,6.5l0.9,6.5v0.2L5,29.9c3.3,2.7,6.6,5.4,10,8.1l0.1,0.1h0.1C20,38,25,37.9,30,37.9H30l0,0l2.4-2.4
	c0.6,0.8,1.3,1.7,2.1,2.7c0.8,1,1.7,1.9,2.7,2.8l0.4,0.4l0,0l0.1,0.1l0.2,0.2l0.1,0.1c1,0.9,1.7,2.1,2.7,3.1c0.9,1,1.8,2,2.8,2.9
	l0.4,0.4l0.3-0.4C45.2,46.2,46,44.7,46.6,43.4L46.6,43.4L46.6,43.4z M43.3,41c0.9,0.7,2,1.5,3.2,2.4l-0.3-0.1
	c-0.5-0.2-1-0.4-1.4-0.6c-0.4-0.2-0.8-0.3-1.2-0.5c-0.3-0.7-0.7-1.3-1.1-1.9C42.7,40.5,43,40.7,43.3,41L43.3,41z M40.9,38.7
	c0.2,0.2,0.3,0.5,0.5,0.7c0.3,0.8,0.6,1.6,1,2.4c-0.6-0.1-1.2-0.2-1.7-0.2c-0.8,0-1.5-0.2-2.2-0.4c0.5-0.3,0.9-0.6,1.2-1.1
	c0.3-0.4,0.6-0.8,1-1.2C40.7,38.9,40.8,38.8,40.9,38.7L40.9,38.7z M37,34.3l1.2,1.6c0.4,0.5,0.8,0.9,1.2,1.3l0.8,0.7l0.4,0.6
	c-0.2,0.2-0.4,0.3-0.6,0.5c-0.2,0.2-0.5,0.4-0.8,0.6L39,39.8l-0.7,0.6c-0.3-1.2-0.6-2.3-1-3.4c-0.3-0.7-0.6-1.4-0.9-2.2v-0.3
	c0-0.4-0.1-0.8-0.2-1.2L37,34.3z M15.7,36.7c-0.2-0.3-0.4-0.5-0.7-0.8c-0.3-0.3-0.7-0.8-1.1-1.2l4,0.3c1.2,0.1,2.5,0.2,3.7,0.2
	c1.1,0,2.4,0,3.6-0.1c0.5,0,1,0,1.5,0c-1.5,0.2-3,0.4-4.5,0.6C20,36,17.8,36.3,15.7,36.7L15.7,36.7z M34.6,12.6
	c-1.2-0.4-2.3-0.9-3.4-1.4c-1.1-0.5-2.2-0.9-3.3-1.3l-3.6-1.2c-1-0.3-2-0.7-3.1-1l0.2-0.1c2.4,0.4,4.8,0.9,7,1.3
	c2.4,0.5,4.8,0.7,7.2,1l0.4,3.1L34.6,12.6z M19.2,5.2C20.3,5.2,21.4,5,22.4,5L24,4.9c-1.2,0.7-2.4,1.3-3.7,2.1
	c-0.5,0.1-1.1,0.2-1.6,0.3l0,0l-3.2,0.5h-0.4c-0.5,0-0.9,0-1.4,0L13.3,6L17,5.5L19.2,5.2z M12.5,6.7L12.8,8l-1.5,1.3
	c-0.4,0.4-0.7,0.7-1.1,1.1l-1.3,1l-0.8,0.6l1-1.2c1-1.2,1.9-2.4,2.8-3.5L12.5,6.7z M4.6,16c0.2,0.9,0.4,1.9,0.7,2.8l0.9,3.4
	c0.5,1.9,1.1,3.8,1.6,5.7l-0.1,0.7l-2.1,0.8L4.8,23L4,16.7L4.6,16z M8.3,29.2L8.3,29.2c0.7,1,1.5,2,2.2,3.1
	c-1.2-0.8-2.6-1.6-3.8-2.4L8.3,29.2z M7.9,27.1c-0.3-1.7-0.7-3.5-1.1-5.2l-0.8-3.4c-0.2-1-0.5-2-0.8-3l0.1-0.2l3.7-2.2
	c-0.1,1.2-0.1,2.4-0.2,3.7c-0.1,1.2-0.2,2.7-0.4,4C8.3,22.9,8.1,25,7.9,27.1z M9.1,12.1L9.1,12.1l1-0.9c0.6-0.4,1.2-0.8,1.7-1.2
	l1-0.8c0,0.3,0.1,0.6,0.1,0.8c-0.3,0.3-0.7,0.5-1.1,0.7C11,11.2,10.1,11.7,9.1,12.1z M13.8,8.4c0.4-0.1,0.9-0.2,1.3-0.3
	C15.4,8.1,15.6,8,15.8,8l1.7-0.1h0.2c-1.3,0.6-2.7,1.2-4.2,2C13.7,9.4,13.8,8.9,13.8,8.4L13.8,8.4z M37,10.5
	c-0.2,0.6-0.4,1.3-0.6,1.9l-0.1-3L37,9.9c0,0.1,0,0.2,0,0.3L37,10.5z M36.3,17.2c0-1.3,0.1-3.8,0.1-3.8v-0.4
	c0.3-0.4,0.5-0.8,0.7-1.2c0.1,0.6,0.2,1.2,0.4,1.9c0.2,0.6,0.3,1.1,0.5,1.7c0.4,2.1,0.8,4.2,1.2,6.3c-1.1-0.3-2.1-0.5-3.2-0.8
	C36.2,19.6,36.3,18.4,36.3,17.2z M38,28c-0.1-0.4-0.2-0.8-0.3-1.1c-0.1-0.6-0.3-1.2-0.5-1.8c-0.2-0.6-0.5-1.2-0.8-1.8l-0.7-1.5
	l1.9,0.4c0.6,0.3,1.1,0.5,1.7,0.7c-0.2,0.9-0.5,1.8-0.7,2.8l0,0L38,28z M35.4,21.6c0.2,1.5,0.3,2.9,0.5,4.2s0.3,2.8,0.5,4.2
	c-1.3,0.6-2.6,1.4-3.8,2.1c-0.6,0.4-1.3,0.8-1.9,1.2l-1.4,1c0.4-1,0.9-1.9,1.4-2.8c0.5-0.9,1.2-2.1,1.7-3.2c0.5-1.1,1-2.3,1.5-3.5
	l1.4-3.3L35.4,21.6z M36.3,25.5c-0.2-1.1-0.5-2.2-0.7-3.3c0,0.2,0.1,0.5,0.2,0.7c0.2,0.6,0.4,1.3,0.6,2c0.2,0.7,0.5,1.4,0.8,2
	c0.3,0.5,0.5,1.1,0.7,1.6c-0.1,0.3-0.1,0.6-0.2,0.9l-0.5,0.5C36.9,28.5,36.6,26.9,36.3,25.5z M27.1,4l5,3L35.6,9
	c-2.5-0.4-5.2-0.8-7.8-1c-2.2-0.2-4.4-0.3-6.4-0.5l1-0.9c1.1-0.6,2.2-1.2,3.3-1.9L27.1,4L27.1,4z M9.6,32.7c0.8,0.5,4.3,2,4.3,2
	l-5.3-5.6v-0.3c0.2-2.7,0.3-5.3,0.4-8c0-1.3,0.1-2.7,0.2-4c0.1-1.3,0.2-2.7,0.4-4c0.7-0.8,1.6-1.4,2.4-2.1c0.4-0.2,1.6-0.7,1.6-0.7
	s4.6-1.2,7-2.3c1,0.2,2,0.5,2.9,0.9l3.5,1.4c1.2,0.5,2.4,1,3.7,1.4c1.3,0.4,2.4,0.8,3.7,1.2l0,0l1.7,0.5c-0.3,1.2-0.5,2.5-0.6,3.8
	s-0.3,2.7-0.4,4v0.4l-1.4,2.7c-0.6,1.1-1.2,2.2-1.8,3.4s-1.1,2.4-1.6,3.7c-0.5,1.2-1,2.4-1.6,3.5c-1.2,0-2.4,0-3.7-0.1
	c-1.2-0.1-2.6-0.2-3.9-0.2c-1.3,0-2.5,0-3.8,0l-3.5,0.2l0.5,1.3c0.2,0.4,0.4,0.9,0.6,1.3C13.2,35.7,11.4,34.2,9.6,32.7z M29.9,37.6
	c-4.4,0-8.8-0.1-13.2-0.1c1.8-0.3,3.7-0.6,5.5-1c2.1-0.4,4.2-0.9,6.2-1.3h0.3h0.1c0,0,0.1-0.1,0.1-0.1c0.6-0.3,1.3-0.6,2-1
	c0.7-0.3,1.3-0.7,2-1.2c1-0.5,1.9-1.1,2.9-1.7C33.9,33.3,31.9,35.5,29.9,37.6z M35.4,37.8c-0.9-0.8-1.8-1.6-2.8-2.4l0.5-0.5
	c0.8-0.6,1.6-1.1,2.3-1.6c0.1,0.5,0.2,0.9,0.4,1.4c0.2,0.6,0.4,1.2,0.6,1.9v0.1c0,0.2,0.1,0.5,0.2,0.7c0.1,0.7,0.2,1.3,0.3,2
	C36.4,38.8,35.9,38.2,35.4,37.8L35.4,37.8z M46.6,43.5c-1.1,1.2-2,2.2-2.9,3.2c-0.8-0.9-1.7-1.6-2.5-2.4s-1.8-1.5-2.6-2.3
	c1.2,0.3,2.3,0.8,3.5,1c0.5,0.1,1.1,0.2,1.6,0.3h0.4h0.2h0.6h0.3h0.4L46.6,43.5z"/>
</svg>
