<?xml version="1.0" encoding="utf-8"?>
<!-- Generator: Adobe Illustrator 24.2.3, SVG Export Plug-In . SVG Version: 6.00 Build 0)  -->
<svg version="1.1" id="Layer_1" xmlns="http://www.w3.org/2000/svg" xmlns:xlink="http://www.w3.org/1999/xlink" x="0px" y="0px"
	 width="50px" height="50px" viewBox="0 0 50 50" style="enable-background:new 0 0 50 50;" xml:space="preserve">
<style type="text/css">
	.st0{fill:none;}
</style>
<g>
	<path class="st0" d="M16.5,37c-0.4,0.6-0.7,1.1-1.1,1.6c-0.3,0.5-0.7,0.9-1.1,1.3c-0.4,0.4-0.7,0.8-1.1,1.2
		c0.7,0.1,1.4,0.1,2.2,0.1h0.5V41l0.2-1.2c0.2-0.8,0.4-1.6,0.6-2.4l0,0c0.1-0.4,0.3-0.8,0.5-1.2c0-0.1,0.1-0.2,0.1-0.3
		c0-0.1-0.1-0.1-0.1-0.2C17,36.2,16.7,36.6,16.5,37z"/>
	<path class="st0" d="M21.7,41.4L21.7,41.4c1.9,0,3.8-0.1,5.7-0.1c1.2-0.1,2.4-0.1,3.6-0.1c0.9-0.1,1.8-0.2,2.7-0.2L33.4,41
		c-0.9-0.2-1.7-0.3-2.6-0.5l-1.1-0.2l-2.2,0.3c-1.9,0.3-3.8,0.5-5.7,0.7l-1.7,0.2H21C21.2,41.4,21.4,41.4,21.7,41.4z"/>
	<path class="st0" d="M16.5,22c0.9-0.1,1.7-0.1,2.5-0.2s1.7-0.3,2.5-0.5l-2-0.9l-3.9-1.6c-1.3-0.6-2.6-1.2-3.8-1.8l-0.7-0.3
		c0.7,0.8,1.4,1.6,2.2,2.3C14.3,20,15.4,20.9,16.5,22z"/>
	<path class="st0" d="M16.3,22.8h-0.1l-0.1-0.1c-1.1-1.1-2-2.4-3.1-3.5c-0.8-0.9-1.7-1.8-2.7-2.7c1.2,3.1,2.5,6.1,3.7,9.2
		c1,2.4,1.9,4.9,2.8,7.4c-0.1-1.4-0.3-2.8-0.3-4.1C16.5,26.8,16.3,24.7,16.3,22.8z"/>
	<path class="st0" d="M11.5,11.7c-0.2,0.5-0.2,1-0.4,1.6c-0.2,0.6-0.4,1.3-0.6,1.9h1.9C12,14.1,11.8,12.9,11.5,11.7z"/>
	<path class="st0" d="M12.4,12.2c0.1,0.2,0.1,0.3,0.2,0.5c0.1,0.5,0.3,1,0.4,1.5c0.2-0.4,0.5-0.8,0.7-1.1c0.2-0.3,0.4-0.6,0.6-0.9
		c0.2-0.3,0.4-0.6,0.6-1c-0.9,0.1-1.8,0.2-2.7,0.3C12.2,11.7,12.3,12,12.4,12.2z"/>
	<path class="st0" d="M44.5,15.9c-0.4,0-6.1,1.5-6.1,1.5c-0.9,0.2-1.7,0.5-2.6,0.7c0.3,1.4,0.6,2.8,0.9,4.2l1,4.3
		c0.5,2.5,1.1,5,1.6,7.5c0.9-2.8,1.7-5.6,2.5-8.4c0-0.1,0.1-0.2,0.1-0.3h0C42.8,22.3,43.6,19.1,44.5,15.9z"/>
	<path class="st0" d="M38.4,41.2c0.1-0.7,0.2-1.3,0.3-2c-1.2,0.1-2.5,0.2-3.7,0.3l-1.7,0.3l-2.7,0.4l3,0.4
		C35.1,40.7,36.7,40.9,38.4,41.2z"/>
	<path class="st0" d="M5.2,8.3c-0.6,1-1.2,1.9-1.8,2.8C4,11,4.6,11,5.2,11c0.8,0,1.7,0.1,2.5,0c1.1-0.1,2.2-0.2,3.3-0.4
		c-0.7-0.2-1.4-0.4-2-0.7C7.7,9.4,6.5,8.9,5.2,8.3z"/>
	<path class="st0" d="M31.6,22.8c-1.3,1.4-2.7,2.9-4.2,4.4c0.4,0.3,0.8,0.5,1.2,0.8c0.4,0.3,0.8,0.6,1.3,0.8l2.5,1.6l0.5,0.3
		c1.8,1.1,3.5,2.3,5.2,3.5l0.3,0.2c-0.5-2.6-1-5.1-1.5-7.7l-0.2-1.3c-0.2-1-0.4-2-0.6-3c-0.3-1.3-0.6-2.5-0.9-3.8
		C34.1,20.2,33,21.4,31.6,22.8z"/>
	<path class="st0" d="M32.3,31c-2.4,1-5,1.9-7.5,2.7c-2,0.6-4,1.2-5.8,1.8l9.3-0.2l9.7-0.1L37.7,35C35.8,33.7,34,32.4,32.3,31z"/>
	<path class="st0" d="M30.7,16h-2.9h-1c-4.7,0.1-9.3,0.1-14,0.1h-1.2l0.7,0.3c1.4,0.6,2.8,1.3,4.2,2l4.6,2.5l0.8,0.4l0.4-0.1
		l0.4-0.1c1.7-0.5,3.5-0.9,5.2-1.4c1.7-0.5,3.4-1,5.1-1.5c0.9-0.3,1.7-0.5,2.6-0.7c0.9-0.2,1.8-0.5,2.7-0.8l3.3-0.9
		C40.3,16,39,16,37.8,16C35.4,16,33,16,30.7,16z"/>
	<path class="st0" d="M31.6,30.6l-1.1-0.8l-1-0.8l-1.1-0.8c-0.4-0.3-0.8-0.5-1.1-0.8c-0.8,0.7-1.5,1.5-2.2,2.2
		c-0.7,0.7-1.5,1.4-2.3,2.1l-2.5,2.1l-2.2,1.8l0.6,0c2.2-0.9,4.2-1.7,6.4-2.6C27.2,32,29.4,31.3,31.6,30.6z"/>
	<path class="st0" d="M19.8,28.5c0.7-2.2,1.2-4.4,1.9-6.6c-0.8,0.1-1.6,0.2-2.4,0.2c-0.9,0.2-1.9,0.4-2.9,0.5
		c0.4,2.2,0.6,4.3,0.9,6.4c0.2,1.6,0.4,3.2,0.5,4.8c0.2-0.6,0.5-1.3,0.7-1.9C19,30.9,19.4,29.7,19.8,28.5z"/>
	<path class="st0" d="M22.1,31.6c0.8-0.8,1.7-1.5,2.6-2.3c0.9-0.7,1.7-1.4,2.6-2.1c-1.6-1.7-3.2-3.4-4.9-5c-0.7,2.2-1.6,4.3-2.4,6.5
		c-0.4,1.2-0.8,2.4-1.1,3.6c-0.3,1.1-0.6,2.2-1,3.3l0,0l1.7-1.7L22.1,31.6z"/>
	<path class="st0" d="M31.1,22.6c1.1-1.4,2.3-2.8,3.6-4.1c-0.6,0.2-1.1,0.3-1.7,0.5l-0.8,0.2L29,20.1c-2.1,0.6-4.1,1.2-6.2,1.6
		c1.5,1.8,4.6,5.3,4.6,5.3S29.9,24,31.1,22.6z"/>
	<path d="M41.8,25.5L41.8,25.5c0,0.1-0.1,0.2-0.1,0.3C41.8,25.7,41.8,25.6,41.8,25.5z"/>
	<path d="M44.8,15.4c-2.4,0-4.7,0-7.1,0c-2.3,0-4.6,0-6.8,0.1l-4.1-0.1c-4.6-0.1-9.1-0.1-13.6-0.1c0.3-0.6,0.6-1.3,0.9-2
		c0.2-0.4,0.3-0.7,0.4-1.1c0.1-0.3,0.3-0.7,0.3-1.1c-0.2,0.3-0.4,0.7-0.6,1c-0.2,0.3-0.4,0.6-0.6,0.9c-0.2,0.3-0.5,0.8-0.7,1.1
		c-0.1-0.5-0.3-1-0.4-1.5c0-0.2-0.1-0.4-0.2-0.5c-0.1-0.3-0.2-0.5-0.2-0.8c0.9-0.1,1.8-0.1,2.7-0.3c-0.1,0-4.6-1.6-5.9-2
		C7.7,8.8,6.4,8.5,5.2,8.3c-0.9,0.9-1.9,1.9-2.8,3l-0.5,0.6h0.8c0.8,0,1.7-0.1,2.5-0.2c0.8-0.2,1.7-0.3,2.5-0.4
		c1.2-0.1,2.5-0.1,3.7-0.1c-0.3,0.7-0.6,1.3-0.9,1.9c-0.3,0.7-0.6,1.4-0.9,2.2H9.1l0.8,0.8c1.2,3.2,2.3,6.6,3.5,9.8
		c1.2,3.3,2.4,6.5,3.6,9.8l-0.6,0.7c-0.4,0.4-0.9,0.9-1.3,1.4c-0.4,0.5-2,2.8-2.4,3.2l-0.1,0.2h0.2c0.8,0.2,1.6,0.4,2.4,0.5h0.2
		c0,0,0,0,0,0l2.1,0l4.2-0.3c1.8,0,3.7,0.1,5.5,0.2c1,0,2,0.1,3,0.1l0.9,0.2c0.6,0,1.3,0,1.9,0h0.3h2.1l0.6-0.1c0.5,0,2.2,0,2.4,0.1
		l0.4,0.1l0.1-0.4c0.2-0.9,0.3-1.9,0.4-2.9l0.1-0.5h-0.5c-1.9,0.2-3.8,0.5-5.6,0.8l-1.4,0.2c-1.4,0.1-2.8,0.3-4.3,0.4
		c-1.9,0.2-3.9,0.4-5.9,0.7c-1.8,0.2-3.5,0.5-5.3,0.8l0.3-1.2c0.2-0.8,0.9-3.7,0.9-3.7l10.6-0.3l10.4-0.4c0.2,0,0.4,0,0.7,0
		c0.8-3,1.8-6.7,2.6-9.7c-0.8,2.8-1.6,5.6-2.5,8.4c-0.5-2.5-1.1-5-1.6-7.5l-1-4.3c-0.3-1.4-0.6-2.8-0.9-4.2c0.9-0.2,1.7-0.5,2.6-0.7
		c0,0,5.8-1.5,6.1-1.5c-0.9,3.2-1.7,6.4-2.7,9.6h0c0,0,0-0.1,0-0.1c0.9-3.1,2-6.6,3-9.9l0.1-0.3L44.8,15.4z M7.7,11
		c-0.8,0.1-1.7,0-2.5,0c-0.6,0-1.2,0-1.8,0.1C4,10.2,4.6,9.3,5.2,8.3C6.5,8.9,7.7,9.4,9,9.9c0.7,0.3,1.3,0.5,2,0.7
		C9.9,10.8,8.8,11,7.7,11z M33.2,39.7l1.7-0.3c1.3-0.1,2.5-0.2,3.7-0.3c-0.1,0.7-0.2,1.3-0.3,2c-1.6-0.2-3.2-0.5-4.9-0.7l-3-0.4
		L33.2,39.7z M21.8,41.3c1.9-0.2,3.8-0.4,5.7-0.7l2.2-0.3l1.1,0.2c0.9,0.2,1.7,0.4,2.6,0.5l0.3,0.1c-0.9,0-1.8,0.1-2.7,0.2
		c-1.2,0-2.4,0-3.6,0.1c-1.9,0.1-3.8,0.1-5.7,0.1h0c-0.2,0-0.4,0-0.7,0h-0.9L21.8,41.3z M11.1,13.4c0.2-0.6,0.2-1.1,0.4-1.6
		c0.2,1.2,0.5,2.4,0.8,3.5h-1.9C10.7,14.6,10.9,14,11.1,13.4z M14.1,25.7c-1.2-3.1-2.5-6.2-3.7-9.2c0.9,0.9,1.8,1.7,2.7,2.7
		c1,1.2,2,2.4,3.1,3.5l0.1,0.1h0.1c0,2,0.1,4,0.2,6.1c0.1,1.4,0.2,2.7,0.3,4.1C16,30.6,15.1,28.1,14.1,25.7z M11.1,16.6l0.7,0.3
		c1.3,0.7,2.5,1.3,3.8,1.8l3.9,1.6l2,0.9c-0.9,0.1-1.7,0.3-2.5,0.5s-1.7,0.1-2.5,0.2c-1.1-1.1-2.2-2-3.2-3.1
		C12.5,18.2,11.8,17.4,11.1,16.6z M17.2,36.4c-0.2,0.4-0.4,0.8-0.5,1.2l0,0c-0.2,0.8-0.5,1.6-0.6,2.4L15.8,41v0.2h-0.5
		c-0.7,0-1.5,0-2.2-0.1c0.3-0.4,0.7-0.8,1.1-1.2c0.4-0.4,0.8-0.9,1.1-1.3c0.3-0.5,0.7-1,1.1-1.6c0.2-0.4,0.5-0.7,0.8-1.1
		c0,0.1,0,0.1,0.1,0.2C17.3,36.2,17.2,36.3,17.2,36.4z M17.3,29.1c-0.3-2.1-0.5-4.2-0.9-6.4c1-0.1,2-0.3,2.9-0.5
		c0.8-0.1,1.6-0.1,2.4-0.2c-0.8,2.2-1.2,4.4-1.9,6.6c-0.4,1.2-0.8,2.3-1.3,3.5c-0.2,0.6-0.5,1.3-0.7,1.9
		C17.7,32.3,17.5,30.7,17.3,29.1z M18,35.5c0.3-1.1,0.7-2.2,1-3.3c0.3-1.1,0.7-2.4,1.1-3.6c0.7-2.2,1.7-4.3,2.4-6.5
		c1.6,1.7,3.3,3.3,4.9,5c-0.8,0.7-1.7,1.4-2.6,2.1c-0.9,0.7-1.8,1.5-2.6,2.3l-2.4,2.3L18,35.5L18,35.5z M22.7,21.7
		c2.1-0.5,4.2-1.1,6.2-1.6l3.2-0.9l0.8-0.2c0.6-0.1,1.1-0.3,1.7-0.5c-1.2,1.3-2.4,2.7-3.6,4.1c-1.1,1.4-3.7,4.5-3.7,4.5
		S24.2,23.5,22.7,21.7z M18.1,35.5l2.2-1.8l2.5-2.1c0.8-0.7,1.6-1.3,2.3-2.1c0.7-0.7,1.5-1.4,2.2-2.2c0.4,0.3,0.8,0.5,1.1,0.8
		l1.1,0.8l1,0.8l1.1,0.8c-2.3,0.7-4.4,1.5-6.6,2.4c-2.2,0.9-4.1,1.7-6.4,2.6L18.1,35.5z M28.3,35.3L19,35.5c1.8-0.6,3.8-1.2,5.8-1.8
		c2.5-0.8,5-1.7,7.5-2.7c1.8,1.3,3.6,2.6,5.4,3.9l0.4,0.3L28.3,35.3z M36.1,22.5c0.2,1,0.4,2,0.6,3l0.2,1.3c0.5,2.6,0.9,5.1,1.5,7.7
		l-0.3-0.2c-1.7-1.3-3.4-2.5-5.2-3.5l-0.5-0.3l-2.5-1.6c-0.4-0.3-0.8-0.5-1.3-0.8c-0.4-0.3-0.8-0.5-1.2-0.8c1.5-1.5,2.9-2.9,4.2-4.4
		c1.3-1.4,2.4-2.6,3.6-4C35.5,20,35.9,21.3,36.1,22.5z M38.2,16.8c-0.9,0.3-1.8,0.5-2.7,0.8c-0.9,0.2-1.7,0.5-2.6,0.7
		c-1.7,0.5-3.4,1-5.1,1.5c-1.7,0.5-3.5,0.9-5.2,1.4l-0.4,0.1l-0.4,0.1L21,20.9l-4.6-2.5c-1.4-0.7-2.8-1.4-4.2-2L11.6,16h1.2
		c4.7,0,9.4,0,14-0.1h1h2.9c2.4,0,4.7,0.1,7.1,0c1.3,0,2.5,0,3.8-0.1L38.2,16.8z"/>
</g>
</svg>
