<?xml version="1.0" encoding="utf-8"?>
<!-- Generator: Adobe Illustrator 24.1.2, SVG Export Plug-In . SVG Version: 6.00 Build 0)  -->
<svg version="1.1" id="Capa_1" xmlns="http://www.w3.org/2000/svg" xmlns:xlink="http://www.w3.org/1999/xlink" x="0px" y="0px"
	 width="512px" height="512px" viewBox="0 0 512 512" style="enable-background:new 0 0 512 512;" xml:space="preserve">
<style type="text/css">
	.st0{fill:#FFFFFF;}
</style>
<g>
	<g>
		<g>
			<path d="M471.9,499.2c-2.5,0-4.9-1-6.6-2.7L327.1,358.3l-0.3,0.3c-33.3,26.9-75,41.8-117.7,41.8c-103.3,0-187.3-84-187.3-187.3
				s84-187.3,187.3-187.3c103.3,0,187.3,84,187.3,187.3c0,42.6-14.8,84.4-41.8,117.7l-0.3,0.3l138.2,138.2c3.7,3.7,3.7,9.6,0,13.3
				l-14,14C476.7,498.3,474.4,499.2,471.9,499.2z M209.1,64.3c-82,0-148.8,66.7-148.8,148.8S127,361.9,209.1,361.9
				s148.8-66.7,148.8-148.8S291.1,64.3,209.1,64.3z"/>
			<path class="st0" d="M209.1,26.3c103,0,186.8,83.8,186.8,186.8c0,21.7-3.7,43-11.1,63.3c-7.1,19.6-17.4,37.8-30.6,54.1l-0.6,0.7
				l0.6,0.6l137.8,137.8c1.7,1.7,2.6,3.9,2.6,6.3c0,2.4-0.9,4.6-2.6,6.3l-14,14c-1.7,1.7-3.9,2.6-6.3,2.6c-2.4,0-4.6-0.9-6.3-2.6
				L327.8,358.3l-0.6-0.6l-0.7,0.6c-16.3,13.2-34.5,23.5-54.1,30.6c-20.3,7.4-41.6,11.1-63.3,11.1c-103,0-186.8-83.8-186.8-186.8
				S106.1,26.3,209.1,26.3 M209.1,362.4c82.3,0,149.3-67,149.3-149.3c0-82.3-67-149.3-149.3-149.3s-149.3,67-149.3,149.3
				C59.8,295.4,126.8,362.4,209.1,362.4 M209.1,25.3c-103.6,0-187.8,84.3-187.8,187.8s84.3,187.8,187.8,187.8
				c44.7,0,85.7-15.7,118-41.9l137.8,137.8c1.9,1.9,4.5,2.9,7,2.9c2.5,0,5.1-1,7-2.9l14-14c3.9-3.9,3.9-10.1,0-14L355,331.1
				c26.1-32.3,41.9-73.3,41.9-118C396.9,109.5,312.6,25.3,209.1,25.3L209.1,25.3z M209.1,361.4c-81.8,0-148.3-66.5-148.3-148.3
				c0-81.8,66.5-148.3,148.3-148.3s148.3,66.5,148.3,148.3C357.4,294.8,290.8,361.4,209.1,361.4L209.1,361.4z"/>
		</g>
	</g>
</g>
</svg>
